{
    "eventsPT": [
        {
            "type": "personal",
            "date": "23 Fev, 1987",
            "event": "Data de nascimento",
            "opened": false,
            "title": [
                {
                    "first": "Nome",
                    "second": "Francisco Verdasca"
                },
                {
                    "first": "Nacionalidade",
                    "second": "Portuguesa"
                }
            ],
            "description": "Recebi vários atributos quando nasci mas vou destacar alguns, do Pai e da Mãe.",
            "attributes": [
                "curiosidade",
                "motivação",
                "pensamento crítico",
                "sentido de humor"
            ]
        },
        {
            "type": null
        },
        {
            "type": null
        },
        {
            "type": "educational",
            "date": "1993",
            "event": "As Descobertas",
            "opened": false,
            "title": [
                {
                    "first": "Nome",
                    "second": "Externato 'As Descobertas'"
                },
                {
                    "first": "Localização",
                    "second": "Lisboa"
                },
                {
                    "first": "Duração",
                    "second": "1993 a 2000"
                }
            ],
            "description": "As memórias que tenho são boas - correr, sujar e brincar - sem filtros. Mas também um complemento à educação, que aqui foi fortalecida.",
            "attributes": [
                "comunicação",
                "confiança",
                "concentração",
                "língua inglesa"
            ]
        },
        {
            "type": null
        },
        {
            "type": null
        },
        {
            "type": null
        },
        {
            "type": "personal",
            "date": "1999",
            "event": "Voleibol",
            "opened": false,
            "title": [
                {
                    "first": "Clubes",
                    "second": "Externato 'As Descobertas' e Sport Lisboa e Benfica"
                },
                {
                    "first": "Localização",
                    "second": "Lisboa"
                },
                {
                    "first": "Duração",
                    "second": "1999 a 2004"
                }
            ],
            "description": "O professor de educação física foi quem nos fez acreditar - a mim e a todos os meus colegas que jogaram voleibol no colégio. Acreditávamos que podíamos ganhar a qualquer equipa - e mesmo não conseguindo ganhar a todos, dávamos o máximo. Mais tarde saí do colégio e comecei outra fase, a fase que me vai fazer adorar este jogo para sempre - fomos os melhores daquele ano, campeões nacionais de juvenis 02/03. Obrigado ao professor Reinaldo por fazer crescer este sentimento e ao treinador Carlos por tirar o máximo dele!",
            "attributes": [
                "competitividade",
                "rapidez de decisão",
                "trabalho de equipa"
            ]
        },
        {
            "type": null
        },
        {
            "type": "educational",
            "date": "2003",
            "event": "Amélia Rey Colaço",
            "opened": false,
            "title": [
                {
                    "first": "Nome",
                    "second": "Escola Secundária Amélia Rey Colaço"
                },
                {
                    "first": "Localização",
                    "second": "Linda-a-Velha"
                },
                {
                    "first": "Agrupamento",
                    "second": "Artes Visuais"
                },
                {
                    "first": "Duração",
                    "second": "2003 a 2005"
                }
            ],
            "description": "Começava uma nova fase, o que é que eu quero fazer quando deixar de estudar? Quando era mais novo e viajava com os meus pais, ficava sempre fascinado com os edifícios - museus, casas, exposições. Gostava de fazer um edifício meu. Quero ser arquitecto!",
            "attributes": [
                "adaptabilidade",
                "competências sociais",
                "imaginação"
            ]
        },
        {
            "type": null
        },
        {
            "type": "educational",
            "date": "2005",
            "event": "Mestrado em Arquitectura",
            "opened": false,
            "title": [
                {
                    "first": "Nome",
                    "second": "Universidade Lusófona de Humanidades e Tecnologias"
                },
                {
                    "first": "Localização",
                    "second": "Lisboa"
                },
                {
                    "first": "Curso",
                    "second": "Mestrado Integrado em Arquitectura"
                },
                {
                    "first": "Duração",
                    "second": "2005 a 2011"
                }
            ],
            "description": "Gostei do curso, adquiri novas competências e fez-me crescer enquanto pessoa. Será que é isto que quero fazer o resto da vida? Ainda não conseguia responder.",
            "attributes": [
                "comunicação oral",
                "criatividade",
                "competências digitais",
                "responsabilidade"
            ]
        },
        {
            "type": null
        },
        {
            "type": null
        },
        {
            "type": "professional",
            "date": "2011",
            "event": "Stonetown",
            "opened": false,
            "title": [
                {
                    "first": "Empresa",
                    "second": "Atelier de Arquitectura - Stonetown"
                },
                {
                    "first": "Localização",
                    "second": "Lisboa"
                },
                {
                    "first": "Cargo",
                    "second": "Desenhador técnico"
                }
            ],
            "description": "Trabalhar e não ver o trabalho ser reconhecido. Gosto de arquitectura, não gosto de 'arquitecturar'. Não era isto que queria para a minha vida!",
            "attributes": [
                "sinceridade",
                "frontalidade"
            ]
        },
        {
            "type": "personal",
            "date": "2012",
            "event": "Curso de arbitragem",
            "opened": false,
            "title": [
                {
                    "first": "Nome",
                    "second": "Associação de Futebol de Lisboa"
                },
                {
                    "first": "Localização",
                    "second": "Lisboa"
                },
                {
                    "first": "Curso",
                    "second": "Curso de arbitragem de futebol"
                },
                {
                    "first": "Duração",
                    "second": "2012 a 2013"
                }
            ],
            "description": "Gosto de desporto, gosto de futebol e acima de tudo, gosto de imparcialidade. Um amigo desafiou-me: 'Porque não tiras o curso de árbitro?'",
            "attributes": [
                "cooperação",
                "resolução de problemas"
            ]
        },
        {
            "type": null
        },
        {
            "type": "professional",
            "date": "2015",
            "event": "The Inventors",
            "opened": false,
            "title": [
                {
                    "first": "Empresa",
                    "second": "The Inventors"
                },
                {
                    "first": "Cargos",
                    "second": "Designer, Arquitecto de software, Gestão de produção"
                },
                {
                    "first": "Duração",
                    "second": "2015 a 2019"
                }
            ],
            "description": "O que dizer de uma start-up? Uma experiência incrível durante 4 anos, que nos obriga a sair da zona de conforto e trabalhar em outras áreas. Construír bases de dados e perceber a ligação entre elas. Procurar e criar uma lógica para automatizar processos. Esta área parecia-me interessante e despertou curiosidade.",
            "attributes": [
                "automação",
                "gestão de equipa",
                "arquitectura de informação",
                "lógica",
                "organização"
            ]
        },
        {
            "type": null
        },
        {
            "type": null
        },
        {
            "type": "educational",
            "date": "2018",
            "event": "Iniciação à programação",
            "opened": false,
            "title": [
                {
                    "first": "Nome",
                    "second": "Iniciação à programação: HTML, CSS & Javascript"
                },
                {
                    "first": "Plataforma",
                    "second": "Coursera"
                }
            ],
            "description": "Decidi procurar mais online. Que mundo é este? Quero, obviamente, saber mais sobre isto!",
            "attributes": [
                "conceitos básicos de programação"
            ]
        },
        {
            "type": "professional",
            "date": "2019",
            "event": "Visual Nuts",
            "opened": false,
            "title": [
                {
                    "first": "Empresa",
                    "second": "Visual Nuts"
                },
                {
                    "first": "Cargo",
                    "second": "Quality Assurance - Tester"
                },
                {
                    "first": "Duração",
                    "second": "2019 até ao presente"
                }
            ],
            "description": "Apareceu a oportunidade, entrar no mundo da tecnologia de informação. Trabalhar, todos os dias, ao lado de programadores. Perguntar, reflectir, assimilar, aprender, perguntar, reflectir... É isto mesmo que eu quero, programar!",
            "attributes": [
                "minucioso",
                "crítico"
            ]
        },
        {
            "type": "educational",
            "date": "2020",
            "event": "Front-end development",
            "opened": false,
            "title": [
                {
                    "first": "Escola",
                    "second": "EDIT - Disruptive Digital Education"
                },
                {
                    "first": "Curso",
                    "second": "Front-end development"
                }
            ],
            "description": "Será tarde demais para responder? É isto que eu quero fazer.",
            "attributes": [
                "HTML5",
                "CSS3",
                "Sass",
                "Javascript",
                "React",
                "design responsivo"
            ]
        },
        {
            "type": "personal",
            "date": "Futuro",
            "event": "Próximo passo",
            "opened": false,
            "title": [
                {
                    "first": "Nome",
                    "second": "Francisco Verdasca"
                },
                {
                    "first": "E-mail",
                    "second": "fverdasca@gmail.com"
                },
                {
                    "first": "Telefone",
                    "second": "+351 91 708 27 45"
                }
            ],
            "description": "Continuar a aprender, com as mãos na massa. Obrigado, Francisco",
            "attributes": null
        }
    ],
    "eventsEN": [
        {
            "type": "personal",
            "date": "23 Feb, 1987",
            "event": "Birthday",
            "opened": false,
            "title": [
                {
                    "first": "Name",
                    "second": "Francisco Verdasca"
                },
                {
                    "first": "Nationality",
                    "second": "Portuguese"
                }
            ],
            "description": "I received a lot of attributes from my parents when I was born, but I'll take only a pair of them.",
            "attributes": [
                "curiosity",
                "motivation",
                "critical thinking",
                "humor"
            ]
        },
        {
            "type": null
        },
        {
            "type": null
        },
        {
            "type": "educational",
            "date": "1993",
            "event": "As Descobertas",
            "opened": false,
            "title": [
                {
                    "first": "Name",
                    "second": "Externato 'As Descobertas'"
                },
                {
                    "first": "Location",
                    "second": "Lisbon"
                },
                {
                    "first": "Duration",
                    "second": "1993 to 2000"
                }
            ],
            "description": "The memories I have are awesome - run, play and get dirty - without any filter. But it was also a place where my education was strengthened.",
            "attributes": [
                "comunication",
                "confidence",
                "concentration",
                "english speaking"
            ]
        },
        {
            "type": null
        },
        {
            "type": null
        },
        {
            "type": null
        },
        {
            "type": "personal",
            "date": "1999",
            "event": "Voleyball",
            "opened": false,
            "title": [
                {
                    "first": "Clubs",
                    "second": "Externato 'As Descobertas' and Sport Lisboa e Benfica"
                },
                {
                    "first": "Location",
                    "second": "Lisboa"
                },
                {
                    "first": "Duration",
                    "second": "1999 to 2004"
                }
            ],
            "description": "Our high school sports teacher was the one who made us believe - me and all my colleagues who played volleyball in high school. We believed that we could win any team - and even if we couldn't win them all, we always did our best. Later on, I left school and joined another club, the club that will make me love this game forever - we were the best of that year, national youth champions 03/02. Thanks to teacher Reinaldo for growing this feeling and to coach Carlos for making the most of it!",
            "attributes": [
                "competitivity",
                "fast decision maker",
                "teamwork"
            ]
        },
        {
            "type": null
        },
        {
            "type": "educational",
            "date": "2003",
            "event": "Amélia Rey Colaço",
            "opened": false,
            "title": [
                {
                    "first": "Name",
                    "second": "Escola Secundária Amélia Rey Colaço"
                },
                {
                    "first": "Location",
                    "second": "Linda-a-Velha"
                },
                {
                    "first": "Area",
                    "second": "Visual Arts"
                },
                {
                    "first": "Duration",
                    "second": "2003 to 2005"
                }
            ],
            "description": "A new phase was about beginning, what do I want to do when I stop studying? When I was younger and traveled with my parents, I was always fascinated by the buildings - museums, houses, exhibitions. I would like to make my own building. I want to be an architect!",
            "attributes": [
                "adaptability",
                "social skills",
                "imagination"
            ]
        },
        {
            "type": null
        },
        {
            "type": "educational",
            "date": "2005",
            "event": "Architecture",
            "opened": false,
            "title": [
                {
                    "first": "Name",
                    "second": "Universidade Lusófona de Humanidades e Tecnologias"
                },
                {
                    "first": "Location",
                    "second": "Lisbon"
                },
                {
                    "first": "Course",
                    "second": "Architecture Degree"
                },
                {
                    "first": "Duration",
                    "second": "2005 to 2011"
                }
            ],
            "description": "I liked the course, acquired new skills and made me grow as a person. Is this what I want to do for the rest of my life? I still couldn't answer that.",
            "attributes": [
                "oral presentations",
                "creativity",
                "digital skills",
                "responsability"
            ]
        },
        {
            "type": null
        },
        {
            "type": null
        },
        {
            "type": "professional",
            "date": "2011",
            "event": "Stonetown",
            "opened": false,
            "title": [
                {
                    "first": "Company",
                    "second": "Architecture studio - Stonetown"
                },
                {
                    "first": "Location",
                    "second": "Lisbon"
                },
                {
                    "first": "Responsibility",
                    "second": "Technical drawer"
                }
            ],
            "description": "Work and don't see the work recognized. I like architecture, I don't like to be an 'architect'. This is not what I wanted for my life!",
            "attributes": [
                "sincerity",
                "openness"
            ]
        },
        {
            "type": "personal",
            "date": "2012",
            "event": "Referee course",
            "opened": false,
            "title": [
                {
                    "first": "Name",
                    "second": "Associação de Futebol de Lisboa"
                },
                {
                    "first": "Location",
                    "second": "Lisbon"
                },
                {
                    "first": "Course",
                    "second": "Football referee course"
                },
                {
                    "first": "Duration",
                    "second": "2012 to 2013"
                }
            ],
            "description": "I like sport, I like football and above all, I like impartiality. A friend challenged me: 'Why don't you take the referee course?'",
            "attributes": [
                "cooperation",
                "problem solving"
            ]
        },
        {
            "type": null
        },
        {
            "type": "professional",
            "date": "2015",
            "event": "The Inventors",
            "opened": false,
            "title": [
                {
                    "first": "Company",
                    "second": "The Inventors"
                },
                {
                    "first": "Responsibility",
                    "second": "Designer, Software architecture, Production manager"
                },
                {
                    "first": "Duration",
                    "second": "2015 to 2019"
                }
            ],
            "description": "What about a start-up? An incredible experience for 4 years, which forces me to leave my comfort zone and work in other areas. Building databases and understanding the connection between them. Searching and creating logic to automate processes. This area seemed interesting to me and awake some curiosity.",
            "attributes": [
                "automation",
                "team management",
                "information architecture",
                "logic",
                "organization"
            ]
        },
        {
            "type": null
        },
        {
            "type": null
        },
        {
            "type": "educational",
            "date": "2018",
            "event": "Programming basics",
            "opened": false,
            "title": [
                {
                    "first": "Name",
                    "second": "Programming basics: HTML, CSS & Javascript"
                },
                {
                    "first": "Platform",
                    "second": "Coursera"
                }
            ],
            "description": "I decided to look for more online. What world is this? I obviously want to know more about this!",
            "attributes": [
                "basic concepts of programming"
            ]
        },
        {
            "type": "professional",
            "date": "2019",
            "event": "Visual Nuts",
            "opened": false,
            "title": [
                {
                    "first": "Company",
                    "second": "Visual Nuts"
                },
                {
                    "first": "Responsability",
                    "second": "Quality Assurance - Tester"
                },
                {
                    "first": "Duration",
                    "second": "2019 until now"
                }
            ],
            "description": "The opportunity came in, to enter the world of information technology. Work, every day, next to programmers. Asking, reflecting, assimilating, learning, asking, reflecting ... This is what I want, I want to program!",
            "attributes": [
                "thorough",
                "argumentative"
            ]
        },
        {
            "type": "educational",
            "date": "2020",
            "event": "Front-end development",
            "opened": false,
            "title": [
                {
                    "first": "School",
                    "second": "EDIT - Disruptive Digital Education"
                },
                {
                    "first": "Course",
                    "second": "Front-end development"
                }
            ],
            "description": "Is it too late to answer? This is what I want to do.",
            "attributes": [
                "HTML5",
                "CSS3",
                "Sass",
                "Javascript",
                "React",
                "responsive design"
            ]
        },
        {
            "type": "personal",
            "date": "Future",
            "event": "Next step",
            "opened": false,
            "title": [
                {
                    "first": "Name",
                    "second": "Francisco Verdasca"
                },
                {
                    "first": "E-mail",
                    "second": "fverdasca@gmail.com"
                },
                {
                    "first": "Phone",
                    "second": "+351 91 708 27 45"
                }
            ],
            "description": "Continue to learn, hands on. Thank you, Francisco",
            "attributes": null
        }
    ],
    "sectionsPT": [
        {
            "title": "Linha cronológica",
            "tooltip": {
                "title": [
                    "A linha cronológica mostra os acontecimentos que mais me marcaram até hoje.",
                    "Estão divididos em três tipos:"
                ],
                "personal": "Pessoais",
                "educational": "Educação",
                "professional": "Profissionais"
            }
        },
        {
            "title": "Acontecimentos",
            "tooltip": {
                "title": [
                    "Nesta secção está mais informação acerca do acontecimento selecionado na linha cronológica. Também se pode navegar para o próximo ou voltar ao anterior."
                ],
                "personal": null,
                "educational": null,
                "professional": null
            }
        },
        {
            "title": "Atributos",
            "tooltip": {
                "title": [
                    "Cada acontecimento acrescentou algo, até os menos positivos.",
                    "Quando o último acontecimento for mostrado, pode-se filtrar os atributos."
                ],
                "personal": "Pessoais",
                "educational": "Educação",
                "professional": "Profissionais"
            }
        }
    ],
    "sectionsEN": [
        {
            "title": "Timeline",
            "tooltip": {
                "title": [
                    "The timeline shows the events that have marked me the most.",
                    "They are divided into three types:"
                ],
                "personal": "Personal",
                "educational": "Education",
                "professional": "Professional"
            }
        },
        {
            "title": "Events",
            "tooltip": {
                "title": [
                    "In this section there is more information about the event selected in the timeline. You can also navigate to the next event or return to the previous one. "
                ],
                "personal": null,
                "educational": null,
                "professional": null
            }
        },
        {
            "title": "Attributes",
            "tooltip": {
                "title": [
                    "Each event has added something, even the least positive.",
                    "When the last event is shown, you can filter the attributes."
                ],
                "personal": "Personal",
                "educational": "Education",
                "professional": "Professional"
            }
        }
    ],
    "footerPT": "Website desenvolvido pelo próprio em <span class='dark'>HTML5</span>, <span class='dark'>CSS3</span> (Sass) e <span class='dark'>Javascript</span>, com recurso a <span class='dark'>Material Icons</span> e <span class='dark'>Google Fonts</span>",
    "footerEN": "Website developed by myself in <span class='dark'>HTML5</span>, <span class='dark'>CSS3</span> (Sass) and <span class='dark'>Javascript</span>, using <span class='dark'>Material Icons</span> and <span class='dark'>Google Fonts</span>"
}